swissdd
…
> Merci vielmals für das swissdd #Rstats package - hat das ganze viel einfacher gemacht  @politan_ch
 > @thlorusso @thw_ch und auch danke ans @StatSchweiz für tolle API #opensource

https://twitter.com/LucasLeemann/status/1226526006695071745
---

# Realtime data on vote-sundays 
### national votes

```r
swissdd::get_nationalvotes(geolevel = "district")
```

```
## # A tibble: 775 x 15
##    name      id canton_id canton_name district_id district_name gebietAusgezaeh…
##    <chr>  <int> <chr>     <chr>       <chr>       <chr>         <lgl>           
##  1 Volks…  6410 1         Zürich      101         Bezirk Affol… TRUE            
##  2 Volks…  6410 1         Zürich      102         Bezirk Andel… TRUE            
##  3 Volks…  6410 1         Zürich      103         Bezirk Bülach TRUE            
##  4 Volks…  6410 1         Zürich      104         Bezirk Diels… TRUE            
##  5 Volks…  6410 1         Zürich      105         Bezirk Hinwil TRUE            
##  6 Volks…  6410 1         Zürich      106         Bezirk Horgen TRUE            
##  7 Volks…  6410 1         Zürich      107         Bezirk Meilen TRUE            
##  8 Volks…  6410 1         Zürich      108         Bezirk Pfäff… TRUE            
##  9 Volks…  6410 1         Zürich      109         Bezirk Uster  TRUE            
## 10 Volks…  6410 1         Zürich      110         Bezirk Winte… TRUE            
## # … with 765 more rows, and 8 more variables: jaStimmenInProzent <dbl>,
## #   jaStimmenAbsolut <int>, neinStimmenAbsolut <int>,
## #   stimmbeteiligungInProzent <dbl>, eingelegteStimmzettel <int>,
## #   anzahlStimmberechtigte <int>, gueltigeStimmen <int>, votedate <date>
```

---
# Realtime data on vote-sundays 
### cantonal votes

```r
swissdd::get_cantonalvotes(geolevel = "district")
```

```
## # A tibble: 155 x 17
##        id canton_name district_id district_name      gebietAusgezaehlt
##     <int> <chr>       <chr>       <chr>              <lgl>            
##  1 211697 ZH          101         Bezirk Affoltern   TRUE             
##  2 211697 ZH          102         Bezirk Andelfingen TRUE             
##  3 211697 ZH          103         Bezirk Bülach      TRUE             
##  4 211697 ZH          104         Bezirk Dielsdorf   TRUE             
##  5 211697 ZH          105         Bezirk Hinwil      TRUE             
##  6 211697 ZH          106         Bezirk Horgen      TRUE             
##  7 211697 ZH          107         Bezirk Meilen      TRUE             
##  8 211697 ZH          108         Bezirk Pfäffikon   TRUE             
##  9 211697 ZH          109         Bezirk Uster       TRUE             
## 10 211697 ZH          110         Bezirk Winterthur  TRUE             
## # … with 145 more rows, and 12 more variables: jaStimmenInProzent <dbl>,
## #   jaStimmenAbsolut <int>, neinStimmenAbsolut <int>,
## #   stimmbeteiligungInProzent <dbl>, eingelegteStimmzettel <int>,
## #   anzahlStimmberechtigte <int>, gueltigeStimmen <int>, de <chr>, fr <chr>,
## #   it <chr>, rm <chr>, votedate <date>
```
…
